%YAML 1.1
%TAG !u! tag:unity3d.com,2011:
--- !u!1045 &1
EditorBuildSettings:
  m_ObjectHideFlags: 0
  serializedVersion: 2
  m_Scenes:
  - enabled: 1
    path: Assets/Scenes/Scene00.unity
    guid: f8fa60740d24ce749b1b11045e0c5c2b
  - enabled: 1
    path: Assets/Scenes/Scene01.unity
    guid: 802f5c848640ad94d8f5b50905872925
  - enabled: 1
    path: Assets/Scenes/Scene02.unity
    guid: ecd774d344f92ff46b149015998f9cd1
  - enabled: 1
    path: Assets/Scenes/Scene03.unity
    guid: f7ab1a29392810c4fae8f102413e5b4f
  m_configObjects: {}
